<?xml version="1.0" encoding="UTF-8" standalone="no"?>
<!-- Created with Sodipodi ("http://www.sodipodi.com/") -->
<svg
    xmlns:inkscape="http://www.inkscape.org/namespaces/inkscape"
    xmlns:rdf="http://www.w3.org/1999/02/22-rdf-syntax-ns#"
    xmlns="http://www.w3.org/2000/svg"
    xmlns:cc="http://creativecommons.org/ns#"
    xmlns:dc="http://purl.org/dc/elements/1.1/"
    xmlns:sodipodi="http://sodipodi.sourceforge.net/DTD/sodipodi-0.dtd"
    xmlns:svg="http://www.w3.org/2000/svg"
    xmlns:ns1="http://sozi.baierouge.fr"
    xmlns:xlink="http://www.w3.org/1999/xlink"
    id="svg602"
    sodipodi:docname="chat_icon_01.svg"
    inkscape:export-filename="C:\joanna\Gfx\drawings_vector\admin\thumbs\Hermann Schwarting\chat_icon_01.png"
    viewBox="0 0 194.88 194.88"
    sodipodi:version="0.32"
    inkscape:export-xdpi="92.36364"
    version="1.0"
    inkscape:output_extension="org.inkscape.output.svg.inkscape"
    inkscape:export-ydpi="92.36364"
    y="0"
    x="0"
    inkscape:version="0.46"
  >
  <sodipodi:namedview
      id="base"
      bordercolor="#666666"
      inkscape:pageshadow="2"
      guidetolerance="10.0"
      pagecolor="#ffffff"
      gridtolerance="10.0"
      inkscape:zoom="2.3706668"
      objecttolerance="10.0"
      borderopacity="1.0"
      inkscape:current-layer="svg602"
      inkscape:cx="97.440941"
      inkscape:cy="97.440941"
      inkscape:window-y="87"
      inkscape:window-x="66"
      inkscape:window-height="667"
      showgrid="false"
      inkscape:pageopacity="0.0"
      inkscape:window-width="640"
  />
  <g
      id="g817"
      transform="translate(17.127 13.679)"
    >
    <g
        id="g609"
        transform="translate(-645.2 -362.39)"
      >
      <path
          id="path610"
          style="stroke:#000000"
          d="m665.24 525.24h120c11.04 0 20-8.96 20-20v-120c0-11.04-8.96-20-20-20h-120c-11.04 0-20 8.96-20 20v120c0 11.04 8.96 20 20 20z"
      />
      <path
          id="path611"
          style="stroke:#000000;fill:#ffffff"
          d="m667.65 375.24h115.18c6.85 0 12.41 5.56 12.41 12.41v115.18c0 6.85-5.56 12.41-12.41 12.41h-115.18c-6.85 0-12.41-5.56-12.41-12.41v-115.18c0-6.85 5.56-12.41 12.41-12.41z"
      />
    </g
    >
    <path
        id="path621"
        style="stroke:#000000;stroke-width:2;fill:none"
        d="m54.554 64.917c1.344-5.231 7.504-15.284 2.454-15.4-5.05-0.117-16.969 0-16.969 0s-20 0-20-13.334c0-13.333 13.333-13.333 26.667-13.333 13.333 0 33.333 0 33.333 13.333 0 13.334-13.333 13.334-13.333 13.334s-8.711 10.257-12.152 15.4z"
    />
    <path
        id="path622"
        style="stroke:#000000;stroke-width:2;fill:none"
        d="m103.88 73.121c-0.83-7.099 1.68-7.585 1.68-7.585h7.33s21.99 0 21.99-14.659-21.99-14.659-29.32-14.659c-7.329 0-21.988 0-21.988 14.659s14.659 14.659 14.659 14.659 1.667 1.018 5.649 7.585z"
    />
    <g
        id="g649"
        transform="translate(-645.2 -362.39)"
      >
      <path
          id="path650"
          style="stroke:#000000"
          d="m698.9 454.82c-3.95 4.79-10.72 6.66-16.74 4.15-7.39-3.07-10.88-11.56-7.81-18.94s11.56-10.88 18.94-7.81c7.39 3.08 10.88 11.56 7.81 18.95l-13.38-5.57 11.18 9.22z"
      />
      <path
          id="path651"
          style="stroke:#000000;stroke-width:3;fill:none"
          d="m686.28 460.09l-4.83 55.05"
      />
      <path
          id="path652"
          style="stroke:#000000;stroke-width:3;fill:none"
          d="m654.89 490.03l17.38-20.77 27.05 1.45 12.55 28.01 14.01-17.87 7.24 0.48"
      />
    </g
    >
    <g
        id="g653"
        transform="translate(-645.2 -362.39)"
      >
      <path
          id="path654"
          style="stroke:#000000"
          d="m750.95 458.47c-3.11-5.23-2.69-12.07 1.51-16.92 5.24-6.04 14.4-6.68 20.44-1.44s6.68 14.4 1.44 20.44-14.4 6.68-20.44 1.44l9.5-10.94-12.45 7.42z"
      />
      <path
          id="path655"
          style="stroke:#000000;stroke-width:3;fill:none"
          d="m764.02 465.4l13.04 49.74"
      />
      <path
          id="path656"
          style="stroke:#000000;stroke-width:3;fill:none"
          d="m767.89 481.82l-32.84 22.21 27.53 4.83"
      />
    </g
    >
  </g
  >
  <metadata
    >
    <rdf:RDF
      >
      <cc:Work
        >
        <dc:format
          >image/svg+xml</dc:format
        >
        <dc:type
            rdf:resource="http://purl.org/dc/dcmitype/StillImage"
        />
        <cc:license
            rdf:resource="http://creativecommons.org/licenses/publicdomain/"
        />
        <dc:publisher
          >
          <cc:Agent
              rdf:about="http://openclipart.org/"
            >
            <dc:title
              >Openclipart</dc:title
            >
          </cc:Agent
          >
        </dc:publisher
        >
        <dc:title
          >Chat icon</dc:title
        >
        <dc:date
          >2009-04-06T05:57:50</dc:date
        >
        <dc:description
          >Chat icon by Hermann Schwarting. From old OCAL site.</dc:description
        >
        <dc:source
          >https://openclipart.org/detail/24119/chat-icon-by-anonymous-24119</dc:source
        >
        <dc:creator
          >
          <cc:Agent
            >
            <dc:title
              >Anonymous</dc:title
            >
          </cc:Agent
          >
        </dc:creator
        >
        <dc:subject
          >
          <rdf:Bag
            >
            <rdf:li
              >appicon</rdf:li
            >
            <rdf:li
              >application</rdf:li
            >
            <rdf:li
              >basic</rdf:li
            >
            <rdf:li
              >chat</rdf:li
            >
            <rdf:li
              >computer</rdf:li
            >
            <rdf:li
              >icon</rdf:li
            >
            <rdf:li
              >internet</rdf:li
            >
            <rdf:li
              >monochrome</rdf:li
            >
            <rdf:li
              >people</rdf:li
            >
            <rdf:li
              >simple</rdf:li
            >
            <rdf:li
              >software</rdf:li
            >
            <rdf:li
              >talk</rdf:li
            >
          </rdf:Bag
          >
        </dc:subject
        >
      </cc:Work
      >
      <cc:License
          rdf:about="http://creativecommons.org/licenses/publicdomain/"
        >
        <cc:permits
            rdf:resource="http://creativecommons.org/ns#Reproduction"
        />
        <cc:permits
            rdf:resource="http://creativecommons.org/ns#Distribution"
        />
        <cc:permits
            rdf:resource="http://creativecommons.org/ns#DerivativeWorks"
        />
      </cc:License
      >
    </rdf:RDF
    >
  </metadata
  >
</svg
>
