<?xml version="1.0" encoding="UTF-8" standalone="no"?>
<svg
    xmlns:inkscape="http://www.inkscape.org/namespaces/inkscape"
    xmlns:rdf="http://www.w3.org/1999/02/22-rdf-syntax-ns#"
    xmlns="http://www.w3.org/2000/svg"
    xmlns:xlink="http://www.w3.org/1999/xlink"
    xmlns:ns1="http://sozi.baierouge.fr"
    xmlns:cc="http://web.resource.org/cc/"
    xmlns:dc="http://purl.org/dc/elements/1.1/"
    xmlns:sodipodi="http://inkscape.sourceforge.net/DTD/sodipodi-0.dtd"
    id="svg1"
    sodipodi:docname="scheme_presentation.svgz"
    viewBox="0 0 60 60"
    sodipodi:version="0.32"
    _SVGFile__filename="oldscale/apps/kpresenter.svg"
    version="1.0"
    y="0"
    x="0"
    inkscape:version="0.43"
    sodipodi:docbase="/home/danny/work/icons/primary/scalable"
  >
  <sodipodi:namedview
      id="base"
      bordercolor="#666666"
      inkscape:pageshadow="2"
      inkscape:window-y="0"
      pagecolor="#ffffff"
      inkscape:window-height="712"
      inkscape:zoom="5.7118485"
      inkscape:window-x="0"
      borderopacity="1.0"
      inkscape:current-layer="svg1"
      inkscape:cx="45.988645"
      inkscape:cy="10.969768"
      inkscape:window-width="1024"
      inkscape:pageopacity="0"
  />
  <path
      id="path1129"
      style="stroke-linejoin:round;stroke:#ffffff;stroke-linecap:round;stroke-width:7.5;fill:none"
      d="m24.901 20.824c-2.984 1.588-4.922 4.601-6.2 7.843h22.598c-1.173-3.163-2.967-6.144-5.704-7.843-3.077-0.134-6.948 0-10.694 0z"
  />
  <path
      id="path1130"
      style="stroke-linejoin:round;stroke:#ffffff;stroke-linecap:round;stroke-width:7.5;fill:none"
      d="m39.5 13.874c0 5.244-4.256 9.5-9.5 9.5s-9.5-4.256-9.5-9.5c0-5.2444 4.256-9.5005 9.5-9.5005s9.5 4.2561 9.5 9.5005z"
  />
  <path
      id="path1131"
      style="stroke-linejoin:round;stroke:#ffffff;stroke-linecap:round;stroke-width:8.125;fill:none"
      d="m10.304 32.817v22.497h39.392v-22.497h-39.392z"
  />
  <path
      id="path1134"
      style="stroke-linejoin:round;stroke:#ffffff;stroke-linecap:round;stroke-width:6.875;fill:none"
      d="m19.373 33.574l-11.943-16.481 6.688-3.344"
  />
  <path
      id="path1135"
      style="stroke-linejoin:round;fill-rule:evenodd;stroke:#ffffff;stroke-width:6.875;fill:#000000"
      d="m16.507 13.749c0 1.582-1.284 2.866-2.867 2.866-1.582 0-2.866-1.284-2.866-2.866s1.284-2.866 2.866-2.866c1.583 0 2.867 1.284 2.867 2.866z"
  />
  <path
      id="path1136"
      style="stroke-linejoin:round;stroke:#ffffff;stroke-width:8.125;fill:none"
      d="m10.008 29.364c-1.6276 0-2.9379 0.953-2.9379 2.136v1.46c0 1.183 1.3103 2.136 2.9379 2.136h39.984c1.628 0 2.938-0.953 2.938-2.136v-1.46c0-1.183-1.31-2.136-2.938-2.136h-39.984z"
  />
  <path
      id="path692"
      style="stroke-linejoin:round;fill-rule:evenodd;stroke:#000000;stroke-linecap:round;stroke-width:2.5;fill:#ffffff"
      d="m24.901 20.824c-2.984 1.588-4.922 4.601-6.2 7.843h22.598c-1.173-3.163-2.967-6.144-5.704-7.843-3.077-0.134-6.948 0-10.694 0z"
  />
  <path
      id="path716"
      style="stroke-linejoin:round;fill-rule:evenodd;stroke:#000000;stroke-linecap:round;stroke-width:2.5;fill:#ffffff"
      d="m39.5 13.874c0 5.244-4.256 9.5-9.5 9.5s-9.5-4.256-9.5-9.5c0-5.2444 4.256-9.5005 9.5-9.5005s9.5 4.2561 9.5 9.5005z"
  />
  <path
      id="path699"
      style="stroke-linejoin:round;fill-rule:evenodd;stroke:#000000;stroke-linecap:round;stroke-width:3.125;fill:#ffffff"
      d="m10.304 32.817v22.497h39.392v-22.497h-39.392z"
  />
  <path
      id="path700"
      style="stroke-linejoin:round;stroke:#000000;stroke-linecap:round;stroke-width:1.875;fill:none"
      d="m19.373 33.574l-11.943-16.481 6.688-3.344"
  />
  <path
      id="path701"
      style="stroke-linejoin:round;fill-rule:evenodd;stroke:#000000;stroke-width:1.875;fill:#000000"
      d="m16.507 13.749c0 1.582-1.284 2.866-2.867 2.866-1.582 0-2.866-1.284-2.866-2.866s1.284-2.866 2.866-2.866c1.583 0 2.867 1.284 2.867 2.866z"
  />
  <path
      id="rect682"
      style="stroke-linejoin:round;fill-rule:evenodd;stroke:#000000;stroke-width:3.125;fill:#000000"
      d="m10.008 29.364c-1.6276 0-2.9379 0.953-2.9379 2.136v1.46c0 1.183 1.3103 2.136 2.9379 2.136h39.984c1.628 0 2.938-0.953 2.938-2.136v-1.46c0-1.183-1.31-2.136-2.938-2.136h-39.984z"
  />
  <metadata
    >
    <rdf:RDF
      >
      <cc:Work
        >
        <dc:format
          >image/svg+xml</dc:format
        >
        <dc:type
            rdf:resource="http://purl.org/dc/dcmitype/StillImage"
        />
        <cc:license
            rdf:resource="http://creativecommons.org/licenses/publicdomain/"
        />
        <dc:publisher
          >
          <cc:Agent
              rdf:about="http://openclipart.org/"
            >
            <dc:title
              >Openclipart</dc:title
            >
          </cc:Agent
          >
        </dc:publisher
        >
      </cc:Work
      >
      <cc:License
          rdf:about="http://creativecommons.org/licenses/publicdomain/"
        >
        <cc:permits
            rdf:resource="http://creativecommons.org/ns#Reproduction"
        />
        <cc:permits
            rdf:resource="http://creativecommons.org/ns#Distribution"
        />
        <cc:permits
            rdf:resource="http://creativecommons.org/ns#DerivativeWorks"
        />
      </cc:License
      >
    </rdf:RDF
    >
  </metadata
  >
</svg
>
